dataset,s1c,s1c_mid,s1c_short,logs2c,FIDR:sumw,FIDR:sumw2,FIDZ:sumw,FIDZ:sumw2,HEROI:sumw,HEROI:sumw2,OD:sumw,OD:sumw2,SS:sumw,SS:sumw2,SkinBarrel:sumw,SkinBarrel:sumw2,SkinDome:sumw,SkinDome:sumw2,WIMPROI:sumw,WIMPROI:sumw2,n
WIMP,"[-inf, 1.0)","[-inf, 0.0)","[-inf, 0.0)","[4.5, 4.514)",0,0,0,0,0,0,0,0,0,0,0,0,0,0,0,0,7768
WIMP,"[1.0, 2000.998)","[2.0, 3.0)","[2.0, 3.0)","[2.036, 2.05)",0,0,0,0,0,0,0,0,1,1,0,0,0,0,0,0,1
WIMP,"[1.0, 2000.998)","[16.0, 17.0)","[16.0, 17.0)","[4.122, 4.136)",0,0,0,0,0,0,0,0,1,1,0,0,0,0,0,0,1
WIMP,"[1.0, 2000.998)","[27.0, 28.0)","[27.0, 28.0)","[3.674, 3.688)",0,0,0,0,0,0,0,0,1,1,0,0,0,0,0,0,1
WIMP,"[1.0, 2000.998)","[36.0, 37.0)","[36.0, 37.0)","[2.96, 2.974)",0,0,1,1,0,0,0,0,1,1,0,0,0,0,0,0,1
WIMP,"[1.0, 2000.998)","[120.0, 121.0)","[100.0, inf)","[4.332, 4.346)",0,0,1,1,0,0,0,0,1,1,0,0,0,0,0,0,1
WIMP,"[1.0, 2000.998)","[125.0, 126.0)","[100.0, inf)","[5.256, 5.2700000000000005)",0,0,1,1,0,0,0,0,1,1,0,0,0,0,0,0,1
WIMP,"[1.0, 2000.998)","[131.0, 132.0)","[100.0, inf)","[5.662, 5.676)",0,0,1,1,0,0,0,0,1,1,0,0,0,0,0,0,1
WIMP,"[1.0, 2000.998)","[178.0, 179.0)","[100.0, inf)","[4.878, 4.8919999999999995)",0,0,1,1,0,0,0,0,1,1,0,0,0,0,0,0,1
WIMP,"[1.0, 2000.998)","[186.0, 187.0)","[100.0, inf)","[4.542, 4.556)",0,0,0,0,0,0,0,0,1,1,0,0,0,0,0,0,1
WIMP,"[1.0, 2000.998)","[201.0, 202.0)","[100.0, inf)","[4.976, 4.99)",1,1,1,1,1,1,1,1,1,1,1,1,1,1,0,0,1
WIMP,"[1.0, 2000.998)","[253.0, 254.0)","[100.0, inf)","[5.914, 5.928)",0,0,0,0,0,0,0,0,1,1,0,0,0,0,0,0,1
WIMP,"[1.0, 2000.998)","[259.0, 260.0)","[100.0, inf)","[5.774, 5.788)",0,0,0,0,0,0,0,0,1,1,0,0,0,0,0,0,1
WIMP,"[1.0, 2000.998)","[281.0, 282.0)","[100.0, inf)","[5.466, 5.48)",0,0,0,0,0,0,0,0,1,1,0,0,0,0,0,0,1
WIMP,"[1.0, 2000.998)","[285.0, 286.0)","[100.0, inf)","[4.822, 4.836)",0,0,1,1,0,0,0,0,1,1,0,0,0,0,0,0,1
WIMP,"[1.0, 2000.998)","[287.0, 288.0)","[100.0, inf)","[5.3260000000000005, 5.34)",0,0,0,0,0,0,0,0,1,1,0,0,0,0,0,0,1
WIMP,"[1.0, 2000.998)","[311.0, 312.0)","[100.0, inf)","[5.158, 5.172)",0,0,0,0,0,0,0,0,1,1,0,0,0,0,0,0,1
WIMP,"[1.0, 2000.998)","[313.0, 314.0)","[100.0, inf)","[5.102, 5.116)",0,0,0,0,0,0,0,0,1,1,0,0,0,0,0,0,1
WIMP,"[1.0, 2000.998)","[313.0, 314.0)","[100.0, inf)","[5.704, 5.718)",0,0,0,0,0,0,0,0,1,1,0,0,0,0,0,0,1
WIMP,"[1.0, 2000.998)","[330.0, 331.0)","[100.0, inf)","[4.85, 4.864)",0,0,0,0,0,0,0,0,1,1,0,0,0,0,0,0,1
WIMP,"[1.0, 2000.998)","[332.0, 333.0)","[100.0, inf)","[5.046, 5.0600000000000005)",0,0,0,0,0,0,0,0,1,1,0,0,0,0,0,0,1
WIMP,"[1.0, 2000.998)","[332.0, 333.0)","[100.0, inf)","[5.438, 5.452)",0,0,0,0,0,0,0,0,1,1,0,0,0,0,0,0,1
WIMP,"[1.0, 2000.998)","[346.0, 347.0)","[100.0, inf)","[5.984, 5.998)",0,0,0,0,0,0,0,0,1,1,0,0,0,0,0,0,1
WIMP,"[1.0, 2000.998)","[353.0, 354.0)","[100.0, inf)","[4.682, 4.696)",0,0,0,0,0,0,0,0,1,1,0,0,0,0,0,0,1
WIMP,"[1.0, 2000.998)","[376.0, 377.0)","[100.0, inf)","[5.116, 5.13)",0,0,1,1,0,0,0,0,1,1,0,0,0,0,0,0,1
WIMP,"[1.0, 2000.998)","[376.0, 377.0)","[100.0, inf)","[5.634, 5.648)",0,0,0,0,0,0,0,0,1,1,0,0,0,0,0,0,1
WIMP,"[1.0, 2000.998)","[379.0, 380.0)","[100.0, inf)","[5.76, 5.774)",0,0,0,0,0,0,0,0,1,1,0,0,0,0,0,0,1
WIMP,"[1.0, 2000.998)","[389.0, 390.0)","[100.0, inf)","[5.368, 5.382)",0,0,1,1,0,0,0,0,1,1,0,0,0,0,0,0,1
WIMP,"[1.0, 2000.998)","[392.0, 393.0)","[100.0, inf)","[5.8580000000000005, 5.872)",0,0,0,0,0,0,0,0,1,1,0,0,0,0,0,0,1
WIMP,"[1.0, 2000.998)","[396.0, 397.0)","[100.0, inf)","[5.452, 5.466)",0,0,0,0,0,0,0,0,1,1,0,0,0,0,0,0,1
WIMP,"[1.0, 2000.998)","[404.0, 405.0)","[100.0, inf)","[5.676, 5.69)",0,0,0,0,0,0,0,0,1,1,0,0,0,0,0,0,1
WIMP,"[1.0, 2000.998)","[411.0, 412.0)","[100.0, inf)","[5.928, 5.942)",0,0,0,0,0,0,0,0,1,1,0,0,0,0,0,0,1
WIMP,"[1.0, 2000.998)","[412.0, 413.0)","[100.0, inf)","[4.486000000000001, 4.5)",0,0,1,1,0,0,0,0,1,1,0,0,0,0,0,0,1
WIMP,"[1.0, 2000.998)","[414.0, 415.0)","[100.0, inf)","[4.542, 4.556)",0,0,1,1,0,0,0,0,1,1,0,0,0,0,0,0,1
WIMP,"[1.0, 2000.998)","[414.0, 415.0)","[100.0, inf)","[4.682, 4.696)",0,0,0,0,0,0,0,0,1,1,0,0,0,0,0,0,1
WIMP,"[1.0, 2000.998)","[428.0, 429.0)","[100.0, inf)","[5.298, 5.312)",0,0,1,1,0,0,0,0,1,1,0,0,0,0,0,0,1
WIMP,"[1.0, 2000.998)","[435.0, 436.0)","[100.0, inf)","[5.018, 5.032)",0,0,1,1,0,0,0,0,1,1,0,0,0,0,0,0,1
WIMP,"[1.0, 2000.998)","[451.0, 452.0)","[100.0, inf)","[4.15, 4.164)",0,0,1,1,0,0,0,0,1,1,0,0,0,0,0,0,1
WIMP,"[1.0, 2000.998)","[452.0, 453.0)","[100.0, inf)","[4.766, 4.78)",0,0,1,1,0,0,0,0,1,1,0,0,0,0,0,0,1
WIMP,"[1.0, 2000.998)","[452.0, 453.0)","[100.0, inf)","[5.2, 5.214)",0,0,1,1,0,0,0,0,1,1,0,0,0,0,0,0,1
WIMP,"[1.0, 2000.998)","[453.0, 454.0)","[100.0, inf)","[5.424, 5.438)",0,0,0,0,0,0,0,0,1,1,0,0,0,0,0,0,1
WIMP,"[1.0, 2000.998)","[471.0, 472.0)","[100.0, inf)","[5.2700000000000005, 5.284)",0,0,1,1,0,0,0,0,1,1,0,0,0,0,0,0,1
WIMP,"[1.0, 2000.998)","[471.0, 472.0)","[100.0, inf)","[5.494, 5.508)",0,0,0,0,0,0,0,0,1,1,0,0,0,0,0,0,1
WIMP,"[1.0, 2000.998)","[473.0, 474.0)","[100.0, inf)","[4.178, 4.192)",0,0,1,1,0,0,0,0,1,1,0,0,0,0,0,0,1
WIMP,"[1.0, 2000.998)","[474.0, 475.0)","[100.0, inf)","[5.438, 5.452)",0,0,1,1,0,0,0,0,1,1,0,0,0,0,0,0,1
WIMP,"[1.0, 2000.998)","[486.0, 487.0)","[100.0, inf)","[5.382, 5.396)",0,0,1,1,0,0,0,0,1,1,0,0,0,0,0,0,1
WIMP,"[1.0, 2000.998)","[489.0, 490.0)","[100.0, inf)","[6.152, 6.166)",0,0,0,0,0,0,0,0,1,1,0,0,0,0,0,0,1
WIMP,"[1.0, 2000.998)","[495.0, 496.0)","[100.0, inf)","[5.9, 5.914)",0,0,0,0,0,0,0,0,1,1,0,0,0,0,0,0,1
WIMP,"[1.0, 2000.998)","[500.0, inf)","[100.0, inf)","[3.758, 3.7720000000000002)",0,0,0,0,0,0,0,0,1,1,0,0,0,0,0,0,1
WIMP,"[1.0, 2000.998)","[500.0, inf)","[100.0, inf)","[4.220000000000001, 4.234)",0,0,1,1,0,0,0,0,1,1,0,0,0,0,0,0,1
WIMP,"[1.0, 2000.998)","[500.0, inf)","[100.0, inf)","[4.696, 4.71)",0,0,0,0,0,0,0,0,1,1,0,0,0,0,0,0,1
WIMP,"[1.0, 2000.998)","[500.0, inf)","[100.0, inf)","[4.948, 4.962)",0,0,1,1,0,0,0,0,2,2,0,0,0,0,0,0,2
WIMP,"[1.0, 2000.998)","[500.0, inf)","[100.0, inf)","[4.976, 4.99)",0,0,1,1,0,0,0,0,1,1,0,0,0,0,0,0,1
WIMP,"[1.0, 2000.998)","[500.0, inf)","[100.0, inf)","[5.032, 5.046)",0,0,2,2,0,0,0,0,2,2,0,0,0,0,0,0,2
WIMP,"[1.0, 2000.998)","[500.0, inf)","[100.0, inf)","[5.0600000000000005, 5.074)",0,0,1,1,0,0,0,0,1,1,0,0,0,0,0,0,1
WIMP,"[1.0, 2000.998)","[500.0, inf)","[100.0, inf)","[5.116, 5.13)",0,0,1,1,0,0,0,0,1,1,0,0,0,0,0,0,1
WIMP,"[1.0, 2000.998)","[500.0, inf)","[100.0, inf)","[5.172, 5.186)",0,0,1,1,0,0,0,0,1,1,0,0,0,0,0,0,1
WIMP,"[1.0, 2000.998)","[500.0, inf)","[100.0, inf)","[5.2, 5.214)",0,0,0,0,0,0,0,0,1,1,0,0,0,0,0,0,1
WIMP,"[1.0, 2000.998)","[500.0, inf)","[100.0, inf)","[5.214, 5.228)",0,0,2,2,0,0,0,0,2,2,0,0,0,0,0,0,2
WIMP,"[1.0, 2000.998)","[500.0, inf)","[100.0, inf)","[5.242, 5.256)",0,0,1,1,0,0,0,0,1,1,0,0,0,0,0,0,1
WIMP,"[1.0, 2000.998)","[500.0, inf)","[100.0, inf)","[5.2700000000000005, 5.284)",1,1,1,1,1,1,1,1,1,1,1,1,1,1,0,0,1
WIMP,"[1.0, 2000.998)","[500.0, inf)","[100.0, inf)","[5.298, 5.312)",1,1,1,1,1,1,1,1,1,1,1,1,1,1,0,0,1
WIMP,"[1.0, 2000.998)","[500.0, inf)","[100.0, inf)","[5.312, 5.3260000000000005)",0,0,2,2,0,0,0,0,2,2,0,0,0,0,0,0,2
WIMP,"[1.0, 2000.998)","[500.0, inf)","[100.0, inf)","[5.3260000000000005, 5.34)",0,0,2,2,0,0,0,0,2,2,0,0,0,0,0,0,2
WIMP,"[1.0, 2000.998)","[500.0, inf)","[100.0, inf)","[5.34, 5.354)",1,1,1,1,0,0,1,1,1,1,1,1,1,1,0,0,1
WIMP,"[1.0, 2000.998)","[500.0, inf)","[100.0, inf)","[5.368, 5.382)",0,0,2,2,0,0,0,0,2,2,0,0,0,0,0,0,2
WIMP,"[1.0, 2000.998)","[500.0, inf)","[100.0, inf)","[5.466, 5.48)",0,0,1,1,0,0,0,0,1,1,0,0,0,0,0,0,1
WIMP,"[1.0, 2000.998)","[500.0, inf)","[100.0, inf)","[5.48, 5.494)",0,0,1,1,0,0,0,0,1,1,0,0,0,0,0,0,1
WIMP,"[1.0, 2000.998)","[500.0, inf)","[100.0, inf)","[5.494, 5.508)",0,0,1,1,0,0,0,0,2,2,0,0,0,0,0,0,2
WIMP,"[1.0, 2000.998)","[500.0, inf)","[100.0, inf)","[5.522, 5.5360000000000005)",0,0,2,2,0,0,0,0,3,3,0,0,0,0,0,0,3
WIMP,"[1.0, 2000.998)","[500.0, inf)","[100.0, inf)","[5.578, 5.5920000000000005)",1,1,1,1,1,1,1,1,1,1,1,1,1,1,0,0,1
WIMP,"[1.0, 2000.998)","[500.0, inf)","[100.0, inf)","[5.5920000000000005, 5.606)",0,0,0,0,0,0,0,0,1,1,0,0,0,0,0,0,1
WIMP,"[1.0, 2000.998)","[500.0, inf)","[100.0, inf)","[5.606, 5.62)",0,0,0,0,0,0,0,0,2,2,0,0,0,0,0,0,2
WIMP,"[1.0, 2000.998)","[500.0, inf)","[100.0, inf)","[5.634, 5.648)",0,0,1,1,0,0,0,0,1,1,0,0,0,0,0,0,1
WIMP,"[1.0, 2000.998)","[500.0, inf)","[100.0, inf)","[5.648, 5.662)",1,1,2,2,1,1,1,1,2,2,1,1,1,1,0,0,2
WIMP,"[1.0, 2000.998)","[500.0, inf)","[100.0, inf)","[5.676, 5.69)",0,0,1,1,0,0,0,0,2,2,0,0,0,0,0,0,2
WIMP,"[1.0, 2000.998)","[500.0, inf)","[100.0, inf)","[5.69, 5.704)",0,0,0,0,0,0,0,0,1,1,0,0,0,0,0,0,1
WIMP,"[1.0, 2000.998)","[500.0, inf)","[100.0, inf)","[5.704, 5.718)",0,0,2,2,0,0,0,0,4,4,0,0,0,0,0,0,4
WIMP,"[1.0, 2000.998)","[500.0, inf)","[100.0, inf)","[5.718, 5.732)",0,0,0,0,0,0,0,0,1,1,0,0,0,0,0,0,1
WIMP,"[1.0, 2000.998)","[500.0, inf)","[100.0, inf)","[5.732, 5.746)",0,0,1,1,0,0,0,0,1,1,0,0,0,0,0,0,1
WIMP,"[1.0, 2000.998)","[500.0, inf)","[100.0, inf)","[5.746, 5.76)",0,0,0,0,0,0,0,0,2,2,0,0,0,0,0,0,2
WIMP,"[1.0, 2000.998)","[500.0, inf)","[100.0, inf)","[5.76, 5.774)",0,0,0,0,0,0,0,0,1,1,0,0,0,0,0,0,1
WIMP,"[1.0, 2000.998)","[500.0, inf)","[100.0, inf)","[5.774, 5.788)",1,1,2,2,1,1,1,1,5,5,1,1,1,1,0,0,5
WIMP,"[1.0, 2000.998)","[500.0, inf)","[100.0, inf)","[5.788, 5.8020000000000005)",0,0,1,1,0,0,0,0,2,2,0,0,0,0,0,0,2
WIMP,"[1.0, 2000.998)","[500.0, inf)","[100.0, inf)","[5.8020000000000005, 5.816)",1,1,3,3,1,1,1,1,5,5,1,1,1,1,0,0,5
WIMP,"[1.0, 2000.998)","[500.0, inf)","[100.0, inf)","[5.816, 5.83)",13,13,13,13,13,13,13,13,15,15,13,13,13,13,0,0,15
WIMP,"[1.0, 2000.998)","[500.0, inf)","[100.0, inf)","[5.83, 5.844)",10,10,10,10,10,10,10,10,14,14,10,10,10,10,0,0,14
WIMP,"[1.0, 2000.998)","[500.0, inf)","[100.0, inf)","[5.844, 5.8580000000000005)",9,9,10,10,9,9,9,9,12,12,9,9,9,9,0,0,12
WIMP,"[1.0, 2000.998)","[500.0, inf)","[100.0, inf)","[5.8580000000000005, 5.872)",10,10,11,11,10,10,10,10,14,14,10,10,10,10,0,0,14
WIMP,"[1.0, 2000.998)","[500.0, inf)","[100.0, inf)","[5.872, 5.886)",9,9,10,10,9,9,9,9,13,13,9,9,9,9,0,0,13
WIMP,"[1.0, 2000.998)","[500.0, inf)","[100.0, inf)","[5.886, 5.9)",9,9,12,12,9,9,9,9,13,13,9,9,9,9,0,0,13
WIMP,"[1.0, 2000.998)","[500.0, inf)","[100.0, inf)","[5.9, 5.914)",12,12,13,13,12,12,12,12,14,14,12,12,12,12,0,0,14
WIMP,"[1.0, 2000.998)","[500.0, inf)","[100.0, inf)","[5.914, 5.928)",5,5,6,6,5,5,5,5,8,8,5,5,5,5,0,0,8
WIMP,"[1.0, 2000.998)","[500.0, inf)","[100.0, inf)","[5.928, 5.942)",2,2,3,3,2,2,2,2,4,4,2,2,2,2,0,0,4
WIMP,"[1.0, 2000.998)","[500.0, inf)","[100.0, inf)","[5.942, 5.956)",3,3,4,4,3,3,3,3,6,6,3,3,3,3,0,0,6
WIMP,"[1.0, 2000.998)","[500.0, inf)","[100.0, inf)","[5.956, 5.97)",2,2,3,3,0,0,2,2,9,9,2,2,2,2,0,0,9
WIMP,"[1.0, 2000.998)","[500.0, inf)","[100.0, inf)","[5.97, 5.984)",2,2,7,7,0,0,2,2,13,13,2,2,2,2,0,0,13
WIMP,"[1.0, 2000.998)","[500.0, inf)","[100.0, inf)","[5.984, 5.998)",3,3,4,4,1,1,3,3,8,8,3,3,3,3,0,0,8
WIMP,"[1.0, 2000.998)","[500.0, inf)","[100.0, inf)","[5.998, 6.0120000000000005)",5,5,7,7,2,2,5,5,9,9,5,5,5,5,0,0,9
WIMP,"[1.0, 2000.998)","[500.0, inf)","[100.0, inf)","[6.0120000000000005, 6.026)",7,7,13,13,3,3,7,7,19,19,7,7,7,7,0,0,19
WIMP,"[1.0, 2000.998)","[500.0, inf)","[100.0, inf)","[6.026, 6.04)",5,5,5,5,1,1,5,5,10,10,5,5,5,5,0,0,10
WIMP,"[1.0, 2000.998)","[500.0, inf)","[100.0, inf)","[6.04, 6.054)",5,5,6,6,1,1,5,5,10,10,5,5,5,5,0,0,10
WIMP,"[1.0, 2000.998)","[500.0, inf)","[100.0, inf)","[6.054, 6.0680000000000005)",8,8,12,12,1,1,8,8,18,18,8,8,8,8,0,0,18
WIMP,"[1.0, 2000.998)","[500.0, inf)","[100.0, inf)","[6.0680000000000005, 6.082)",7,7,12,12,2,2,7,7,17,17,7,7,7,7,0,0,17
WIMP,"[1.0, 2000.998)","[500.0, inf)","[100.0, inf)","[6.082, 6.096)",3,3,6,6,3,3,3,3,9,9,3,3,3,3,0,0,9
WIMP,"[1.0, 2000.998)","[500.0, inf)","[100.0, inf)","[6.096, 6.11)",0,0,2,2,0,0,0,0,6,6,0,0,0,0,0,0,6
WIMP,"[1.0, 2000.998)","[500.0, inf)","[100.0, inf)","[6.11, 6.124)",3,3,3,3,2,2,3,3,10,10,3,3,3,3,0,0,10
WIMP,"[1.0, 2000.998)","[500.0, inf)","[100.0, inf)","[6.124, 6.138)",1,1,2,2,1,1,1,1,8,8,1,1,1,1,0,0,8
WIMP,"[1.0, 2000.998)","[500.0, inf)","[100.0, inf)","[6.138, 6.152)",1,1,1,1,1,1,1,1,5,5,1,1,1,1,0,0,5
WIMP,"[1.0, 2000.998)","[500.0, inf)","[100.0, inf)","[6.152, 6.166)",1,1,3,3,0,0,1,1,8,8,1,1,1,1,0,0,8
WIMP,"[1.0, 2000.998)","[500.0, inf)","[100.0, inf)","[6.166, 6.18)",0,0,1,1,0,0,0,0,7,7,0,0,0,0,0,0,7
WIMP,"[1.0, 2000.998)","[500.0, inf)","[100.0, inf)","[6.18, 6.194)",0,0,1,1,0,0,0,0,7,7,0,0,0,0,0,0,7
WIMP,"[1.0, 2000.998)","[500.0, inf)","[100.0, inf)","[6.194, 6.208)",0,0,0,0,0,0,0,0,7,7,0,0,0,0,0,0,7
WIMP,"[1.0, 2000.998)","[500.0, inf)","[100.0, inf)","[6.208, 6.222)",1,1,3,3,0,0,1,1,4,4,1,1,1,1,0,0,4
WIMP,"[1.0, 2000.998)","[500.0, inf)","[100.0, inf)","[6.222, 6.236)",0,0,0,0,0,0,0,0,3,3,0,0,0,0,0,0,3
WIMP,"[1.0, 2000.998)","[500.0, inf)","[100.0, inf)","[6.236, 6.25)",1,1,1,1,0,0,1,1,5,5,1,1,1,1,0,0,5
WIMP,"[1.0, 2000.998)","[500.0, inf)","[100.0, inf)","[6.25, 6.264)",2,2,3,3,0,0,1,1,8,8,1,1,1,1,0,0,8
WIMP,"[1.0, 2000.998)","[500.0, inf)","[100.0, inf)","[6.264, 6.2780000000000005)",2,2,3,3,0,0,2,2,6,6,2,2,2,2,0,0,6
WIMP,"[1.0, 2000.998)","[500.0, inf)","[100.0, inf)","[6.2780000000000005, 6.292)",3,3,3,3,0,0,3,3,4,4,3,3,3,3,0,0,4
WIMP,"[1.0, 2000.998)","[500.0, inf)","[100.0, inf)","[6.292, 6.306)",5,5,7,7,0,0,5,5,9,9,5,5,5,5,0,0,9
WIMP,"[1.0, 2000.998)","[500.0, inf)","[100.0, inf)","[6.306, 6.32)",4,4,4,4,0,0,3,3,8,8,3,3,4,4,0,0,8
WIMP,"[1.0, 2000.998)","[500.0, inf)","[100.0, inf)","[6.32, 6.3340000000000005)",2,2,3,3,0,0,2,2,3,3,2,2,2,2,0,0,3
WIMP,"[1.0, 2000.998)","[500.0, inf)","[100.0, inf)","[6.3340000000000005, 6.348)",1,1,3,3,0,0,1,1,5,5,1,1,1,1,0,0,5
WIMP,"[1.0, 2000.998)","[500.0, inf)","[100.0, inf)","[6.348, 6.362)",0,0,1,1,0,0,0,0,3,3,0,0,0,0,0,0,3
WIMP,"[1.0, 2000.998)","[500.0, inf)","[100.0, inf)","[6.362, 6.376)",2,2,2,2,1,1,2,2,2,2,2,2,2,2,0,0,2
WIMP,"[1.0, 2000.998)","[500.0, inf)","[100.0, inf)","[6.376, 6.39)",0,0,2,2,0,0,0,0,4,4,0,0,0,0,0,0,4
WIMP,"[1.0, 2000.998)","[500.0, inf)","[100.0, inf)","[6.39, 6.404)",0,0,0,0,0,0,0,0,2,2,0,0,0,0,0,0,2
WIMP,"[1.0, 2000.998)","[500.0, inf)","[100.0, inf)","[6.404, 6.418)",1,1,1,1,0,0,1,1,1,1,1,1,1,1,0,0,1
WIMP,"[1.0, 2000.998)","[500.0, inf)","[100.0, inf)","[6.418, 6.432)",0,0,1,1,0,0,0,0,1,1,0,0,0,0,0,0,1
WIMP,"[1.0, 2000.998)","[500.0, inf)","[100.0, inf)","[6.432, 6.446)",0,0,0,0,0,0,0,0,2,2,0,0,0,0,0,0,2
WIMP,"[1.0, 2000.998)","[500.0, inf)","[100.0, inf)","[6.474, 6.488)",0,0,2,2,0,0,0,0,2,2,0,0,0,0,0,0,2
WIMP,"[1.0, 2000.998)","[500.0, inf)","[100.0, inf)","[6.502, 6.516)",1,1,1,1,0,0,0,0,2,2,0,0,1,1,0,0,2
WIMP,"[1.0, 2000.998)","[500.0, inf)","[100.0, inf)","[6.53, 6.5440000000000005)",0,0,0,0,0,0,0,0,1,1,0,0,0,0,0,0,1
WIMP,"[1.0, 2000.998)","[500.0, inf)","[100.0, inf)","[6.5440000000000005, 6.558)",1,1,1,1,0,0,0,0,1,1,0,0,0,0,0,0,1
WIMP,"[1.0, 2000.998)","[500.0, inf)","[100.0, inf)","[6.586, 6.6000000000000005)",2,2,2,2,0,0,0,0,2,2,0,0,1,1,0,0,2
WIMP,"[1.0, 2000.998)","[500.0, inf)","[100.0, inf)","[6.628, 6.642)",0,0,0,0,0,0,0,0,1,1,0,0,0,0,0,0,1
WIMP,"[2000.998, 4000.996)","[500.0, inf)","[100.0, inf)","[5.564, 5.578)",0,0,1,1,0,0,0,0,1,1,0,0,0,0,0,0,1
WIMP,"[2000.998, 4000.996)","[500.0, inf)","[100.0, inf)","[6.054, 6.0680000000000005)",0,0,0,0,0,0,0,0,1,1,0,0,0,0,0,0,1
WIMP,"[2000.998, 4000.996)","[500.0, inf)","[100.0, inf)","[6.138, 6.152)",0,0,0,0,0,0,0,0,1,1,0,0,0,0,0,0,1
WIMP,"[2000.998, 4000.996)","[500.0, inf)","[100.0, inf)","[6.208, 6.222)",0,0,1,1,0,0,0,0,1,1,0,0,0,0,0,0,1
WIMP,"[2000.998, 4000.996)","[500.0, inf)","[100.0, inf)","[6.236, 6.25)",2,2,3,3,0,0,2,2,3,3,2,2,2,2,0,0,3
WIMP,"[2000.998, 4000.996)","[500.0, inf)","[100.0, inf)","[6.25, 6.264)",1,1,1,1,0,0,1,1,1,1,1,1,1,1,0,0,1
WIMP,"[2000.998, 4000.996)","[500.0, inf)","[100.0, inf)","[6.264, 6.2780000000000005)",0,0,0,0,0,0,0,0,1,1,0,0,0,0,0,0,1
WIMP,"[2000.998, 4000.996)","[500.0, inf)","[100.0, inf)","[6.2780000000000005, 6.292)",0,0,1,1,0,0,0,0,1,1,0,0,0,0,0,0,1
WIMP,"[2000.998, 4000.996)","[500.0, inf)","[100.0, inf)","[6.292, 6.306)",0,0,1,1,0,0,0,0,1,1,0,0,0,0,0,0,1
WIMP,"[2000.998, 4000.996)","[500.0, inf)","[100.0, inf)","[6.348, 6.362)",0,0,1,1,0,0,0,0,2,2,0,0,0,0,0,0,2
WIMP,"[2000.998, 4000.996)","[500.0, inf)","[100.0, inf)","[6.376, 6.39)",0,0,1,1,0,0,0,0,2,2,0,0,0,0,0,0,2
WIMP,"[2000.998, 4000.996)","[500.0, inf)","[100.0, inf)","[6.39, 6.404)",0,0,0,0,0,0,0,0,1,1,0,0,0,0,0,0,1
WIMP,"[2000.998, 4000.996)","[500.0, inf)","[100.0, inf)","[6.404, 6.418)",1,1,2,2,0,0,1,1,5,5,1,1,1,1,0,0,5
WIMP,"[2000.998, 4000.996)","[500.0, inf)","[100.0, inf)","[6.418, 6.432)",0,0,1,1,0,0,0,0,3,3,0,0,0,0,0,0,3
WIMP,"[2000.998, 4000.996)","[500.0, inf)","[100.0, inf)","[6.432, 6.446)",0,0,0,0,0,0,0,0,3,3,0,0,0,0,0,0,3
WIMP,"[2000.998, 4000.996)","[500.0, inf)","[100.0, inf)","[6.446, 6.46)",0,0,1,1,0,0,0,0,5,5,0,0,0,0,0,0,5
WIMP,"[2000.998, 4000.996)","[500.0, inf)","[100.0, inf)","[6.46, 6.474)",0,0,2,2,0,0,0,0,4,4,0,0,0,0,0,0,4
WIMP,"[2000.998, 4000.996)","[500.0, inf)","[100.0, inf)","[6.474, 6.488)",1,1,1,1,0,0,1,1,1,1,1,1,1,1,0,0,1
WIMP,"[2000.998, 4000.996)","[500.0, inf)","[100.0, inf)","[6.488, 6.502)",1,1,1,1,0,0,1,1,4,4,1,1,1,1,0,0,4
WIMP,"[2000.998, 4000.996)","[500.0, inf)","[100.0, inf)","[6.502, 6.516)",1,1,1,1,0,0,1,1,1,1,1,1,1,1,0,0,1
WIMP,"[2000.998, 4000.996)","[500.0, inf)","[100.0, inf)","[6.516, 6.53)",0,0,1,1,0,0,0,0,2,2,0,0,0,0,0,0,2
WIMP,"[2000.998, 4000.996)","[500.0, inf)","[100.0, inf)","[6.53, 6.5440000000000005)",2,2,2,2,0,0,0,0,3,3,0,0,0,0,0,0,3
WIMP,"[2000.998, 4000.996)","[500.0, inf)","[100.0, inf)","[6.5440000000000005, 6.558)",0,0,1,1,0,0,0,0,1,1,0,0,0,0,0,0,1
WIMP,"[2000.998, 4000.996)","[500.0, inf)","[100.0, inf)","[6.558, 6.572)",0,0,0,0,0,0,0,0,4,4,0,0,0,0,0,0,4
WIMP,"[2000.998, 4000.996)","[500.0, inf)","[100.0, inf)","[6.572, 6.586)",0,0,0,0,0,0,0,0,2,2,0,0,0,0,0,0,2
WIMP,"[2000.998, 4000.996)","[500.0, inf)","[100.0, inf)","[6.586, 6.6000000000000005)",1,1,3,3,0,0,0,0,6,6,0,0,0,0,0,0,6
WIMP,"[2000.998, 4000.996)","[500.0, inf)","[100.0, inf)","[6.6000000000000005, 6.614)",2,2,2,2,0,0,1,1,3,3,1,1,2,2,0,0,3
WIMP,"[2000.998, 4000.996)","[500.0, inf)","[100.0, inf)","[6.614, 6.628)",0,0,2,2,0,0,0,0,2,2,0,0,0,0,0,0,2
WIMP,"[2000.998, 4000.996)","[500.0, inf)","[100.0, inf)","[6.628, 6.642)",1,1,2,2,0,0,1,1,5,5,1,1,1,1,0,0,5
WIMP,"[2000.998, 4000.996)","[500.0, inf)","[100.0, inf)","[6.642, 6.656)",0,0,1,1,0,0,0,0,1,1,0,0,0,0,0,0,1
WIMP,"[2000.998, 4000.996)","[500.0, inf)","[100.0, inf)","[6.656, 6.67)",2,2,3,3,0,0,2,2,3,3,2,2,2,2,0,0,3
WIMP,"[2000.998, 4000.996)","[500.0, inf)","[100.0, inf)","[6.67, 6.684)",1,1,2,2,0,0,0,0,3,3,0,0,1,1,0,0,3
WIMP,"[2000.998, 4000.996)","[500.0, inf)","[100.0, inf)","[6.8100000000000005, 6.824)",0,0,0,0,0,0,0,0,1,1,0,0,0,0,0,0,1
WIMP,"[2000.998, 4000.996)","[500.0, inf)","[100.0, inf)","[6.936, 6.95)",0,0,0,0,0,0,0,0,2,2,0,0,0,0,0,0,2
WIMP,"[4000.996, 6000.994000000001)","[500.0, inf)","[100.0, inf)","[5.732, 5.746)",0,0,0,0,0,0,0,0,1,1,0,0,0,0,0,0,1
WIMP,"[4000.996, 6000.994000000001)","[500.0, inf)","[100.0, inf)","[6.166, 6.18)",1,1,1,1,0,0,0,0,1,1,0,0,1,1,0,0,1
WIMP,"[4000.996, 6000.994000000001)","[500.0, inf)","[100.0, inf)","[6.516, 6.53)",0,0,1,1,0,0,0,0,1,1,0,0,0,0,0,0,1
WIMP,"[4000.996, 6000.994000000001)","[500.0, inf)","[100.0, inf)","[6.6000000000000005, 6.614)",0,0,0,0,0,0,0,0,1,1,0,0,0,0,0,0,1
WIMP,"[4000.996, 6000.994000000001)","[500.0, inf)","[100.0, inf)","[6.628, 6.642)",0,0,0,0,0,0,0,0,1,1,0,0,0,0,0,0,1
WIMP,"[4000.996, 6000.994000000001)","[500.0, inf)","[100.0, inf)","[6.642, 6.656)",0,0,0,0,0,0,0,0,2,2,0,0,0,0,0,0,2
WIMP,"[4000.996, 6000.994000000001)","[500.0, inf)","[100.0, inf)","[6.656, 6.67)",0,0,0,0,0,0,0,0,2,2,0,0,0,0,0,0,2
WIMP,"[4000.996, 6000.994000000001)","[500.0, inf)","[100.0, inf)","[6.67, 6.684)",0,0,0,0,0,0,0,0,2,2,0,0,0,0,0,0,2
WIMP,"[4000.996, 6000.994000000001)","[500.0, inf)","[100.0, inf)","[6.698, 6.712)",1,1,1,1,0,0,1,1,5,5,1,1,1,1,0,0,5
WIMP,"[4000.996, 6000.994000000001)","[500.0, inf)","[100.0, inf)","[6.712, 6.726)",0,0,0,0,0,0,0,0,2,2,0,0,0,0,0,0,2
WIMP,"[4000.996, 6000.994000000001)","[500.0, inf)","[100.0, inf)","[6.726, 6.74)",1,1,1,1,0,0,1,1,3,3,1,1,1,1,0,0,3
WIMP,"[4000.996, 6000.994000000001)","[500.0, inf)","[100.0, inf)","[6.74, 6.7540000000000004)",3,3,3,3,0,0,2,2,4,4,2,2,3,3,0,0,4
WIMP,"[4000.996, 6000.994000000001)","[500.0, inf)","[100.0, inf)","[6.7540000000000004, 6.768)",0,0,1,1,0,0,0,0,1,1,0,0,0,0,0,0,1
WIMP,"[4000.996, 6000.994000000001)","[500.0, inf)","[100.0, inf)","[6.768, 6.782)",0,0,0,0,0,0,0,0,2,2,0,0,0,0,0,0,2
WIMP,"[4000.996, 6000.994000000001)","[500.0, inf)","[100.0, inf)","[6.782, 6.796)",0,0,0,0,0,0,0,0,1,1,0,0,0,0,0,0,1
WIMP,"[4000.996, 6000.994000000001)","[500.0, inf)","[100.0, inf)","[6.796, 6.8100000000000005)",2,2,2,2,0,0,1,1,2,2,1,1,2,2,0,0,2
WIMP,"[4000.996, 6000.994000000001)","[500.0, inf)","[100.0, inf)","[6.824, 6.838)",2,2,2,2,0,0,2,2,2,2,2,2,2,2,0,0,2
WIMP,"[6000.994000000001, 8000.992)","[500.0, inf)","[100.0, inf)","[6.768, 6.782)",0,0,1,1,0,0,0,0,1,1,0,0,0,0,0,0,1
WIMP,"[6000.994000000001, 8000.992)","[500.0, inf)","[100.0, inf)","[6.796, 6.8100000000000005)",1,1,1,1,0,0,1,1,1,1,1,1,1,1,0,0,1
WIMP,"[6000.994000000001, 8000.992)","[500.0, inf)","[100.0, inf)","[6.8100000000000005, 6.824)",0,0,0,0,0,0,0,0,1,1,0,0,0,0,0,0,1
WIMP,"[6000.994000000001, 8000.992)","[500.0, inf)","[100.0, inf)","[6.838, 6.852)",0,0,0,0,0,0,0,0,1,1,0,0,0,0,0,0,1
WIMP,"[6000.994000000001, 8000.992)","[500.0, inf)","[100.0, inf)","[6.852, 6.8660000000000005)",0,0,0,0,0,0,0,0,2,2,0,0,0,0,0,0,2
WIMP,"[6000.994000000001, 8000.992)","[500.0, inf)","[100.0, inf)","[6.88, 6.894)",0,0,0,0,0,0,0,0,1,1,0,0,0,0,0,0,1
WIMP,"[6000.994000000001, 8000.992)","[500.0, inf)","[100.0, inf)","[6.908, 6.922)",2,2,2,2,0,0,1,1,2,2,1,1,1,1,0,0,2
WIMP,"[8000.992, 10000.99)","[500.0, inf)","[100.0, inf)","[6.964, 6.978)",0,0,0,0,0,0,0,0,1,1,0,0,0,0,0,0,1
WIMP,"[8000.992, 10000.99)","[500.0, inf)","[100.0, inf)","[7.006, 7.0200000000000005)",0,0,0,0,0,0,0,0,1,1,0,0,0,0,0,0,1
WIMP,"[8000.992, 10000.99)","[500.0, inf)","[100.0, inf)","[7.104, 7.118)",1,1,1,1,0,0,0,0,1,1,0,0,0,0,0,0,1
WIMP,"[10000.99, 12000.988000000001)","[500.0, inf)","[100.0, inf)","[5.774, 5.788)",1,1,1,1,0,0,0,0,1,1,0,0,0,0,0,0,1
WIMP,"[10000.99, 12000.988000000001)","[500.0, inf)","[100.0, inf)","[7.034, 7.048)",1,1,1,1,0,0,0,0,1,1,1,1,1,1,0,0,1
WIMP,"[10000.99, 12000.988000000001)","[500.0, inf)","[100.0, inf)","[7.118, 7.132000000000001)",0,0,1,1,0,0,0,0,1,1,0,0,0,0,0,0,1
WIMP,"[54000.946, 56000.944)","[500.0, inf)","[100.0, inf)","[5.998, 6.0120000000000005)",0,0,0,0,0,0,0,0,1,1,0,0,0,0,0,0,1
WIMP,"[56000.944, 58000.942)","[500.0, inf)","[100.0, inf)","[5.928, 5.942)",1,1,1,1,0,0,1,1,1,1,1,1,1,1,0,0,1
WIMP,"[56000.944, 58000.942)","[500.0, inf)","[100.0, inf)","[5.984, 5.998)",1,1,1,1,0,0,1,1,1,1,1,1,1,1,0,0,1
WIMP,"[56000.944, 58000.942)","[500.0, inf)","[100.0, inf)","[6.096, 6.11)",1,1,1,1,0,0,1,1,1,1,1,1,1,1,0,0,1
WIMP,"[58000.942, 60000.94)","[500.0, inf)","[100.0, inf)","[4.822, 4.836)",1,1,1,1,0,0,1,1,1,1,1,1,1,1,0,0,1
WIMP,"[58000.942, 60000.94)","[500.0, inf)","[100.0, inf)","[5.312, 5.3260000000000005)",1,1,1,1,0,0,1,1,1,1,1,1,1,1,0,0,1
WIMP,"[58000.942, 60000.94)","[500.0, inf)","[100.0, inf)","[5.76, 5.774)",1,1,1,1,0,0,1,1,1,1,1,1,1,1,0,0,1
WIMP,"[58000.942, 60000.94)","[500.0, inf)","[100.0, inf)","[5.83, 5.844)",1,1,1,1,0,0,1,1,1,1,1,1,1,1,0,0,1
WIMP,"[58000.942, 60000.94)","[500.0, inf)","[100.0, inf)","[5.872, 5.886)",0,0,0,0,0,0,0,0,1,1,0,0,0,0,0,0,1
WIMP,"[58000.942, 60000.94)","[500.0, inf)","[100.0, inf)","[5.914, 5.928)",1,1,1,1,0,0,1,1,1,1,1,1,1,1,0,0,1
WIMP,"[58000.942, 60000.94)","[500.0, inf)","[100.0, inf)","[5.928, 5.942)",1,1,1,1,0,0,1,1,1,1,1,1,1,1,0,0,1
WIMP,"[58000.942, 60000.94)","[500.0, inf)","[100.0, inf)","[5.984, 5.998)",1,1,1,1,0,0,1,1,1,1,1,1,1,1,0,0,1
WIMP,"[58000.942, 60000.94)","[500.0, inf)","[100.0, inf)","[6.096, 6.11)",1,1,1,1,0,0,1,1,1,1,1,1,1,1,0,0,1
WIMP,"[62000.938, 64000.936)","[500.0, inf)","[100.0, inf)","[5.928, 5.942)",0,0,0,0,0,0,0,0,1,1,0,0,0,0,0,0,1
WIMP,"[62000.938, 64000.936)","[500.0, inf)","[100.0, inf)","[5.942, 5.956)",1,1,1,1,0,0,1,1,1,1,1,1,1,1,0,0,1
WIMP,"[62000.938, 64000.936)","[500.0, inf)","[100.0, inf)","[5.956, 5.97)",1,1,1,1,0,0,1,1,1,1,1,1,1,1,0,0,1
WIMP,"[62000.938, 64000.936)","[500.0, inf)","[100.0, inf)","[6.026, 6.04)",1,1,1,1,0,0,1,1,1,1,1,1,1,1,0,0,1
WIMP,"[64000.936, 66000.93400000001)","[500.0, inf)","[100.0, inf)","[5.466, 5.48)",2,2,2,2,0,0,2,2,2,2,2,2,2,2,0,0,2
WIMP,"[64000.936, 66000.93400000001)","[500.0, inf)","[100.0, inf)","[5.5920000000000005, 5.606)",1,1,1,1,0,0,1,1,1,1,1,1,1,1,0,0,1
WIMP,"[64000.936, 66000.93400000001)","[500.0, inf)","[100.0, inf)","[5.69, 5.704)",1,1,1,1,0,0,1,1,1,1,1,1,1,1,0,0,1
WIMP,"[64000.936, 66000.93400000001)","[500.0, inf)","[100.0, inf)","[5.886, 5.9)",1,1,1,1,0,0,1,1,1,1,1,1,1,1,0,0,1
WIMP,"[64000.936, 66000.93400000001)","[500.0, inf)","[100.0, inf)","[5.97, 5.984)",1,1,1,1,0,0,1,1,1,1,1,1,1,1,0,0,1
WIMP,"[64000.936, 66000.93400000001)","[500.0, inf)","[100.0, inf)","[5.998, 6.0120000000000005)",1,1,1,1,0,0,1,1,1,1,1,1,1,1,0,0,1
WIMP,"[66000.93400000001, 68000.932)","[500.0, inf)","[100.0, inf)","[5.508, 5.522)",1,1,1,1,0,0,1,1,1,1,1,1,1,1,0,0,1
WIMP,"[66000.93400000001, 68000.932)","[500.0, inf)","[100.0, inf)","[5.844, 5.8580000000000005)",1,1,1,1,0,0,1,1,1,1,1,1,1,1,0,0,1
WIMP,"[74000.926, 76000.924)","[500.0, inf)","[100.0, inf)","[5.732, 5.746)",1,1,1,1,0,0,1,1,1,1,1,1,1,1,0,0,1
