,,,passed_only_cut,passed_incl,totals_incl
,,,unweighted,unweighted,unweighted
dataset,depth,cut,,,
WIMP,0,All,0,0,0
WIMP,1,KR,526449,526449,2731667
WIMP,1,2.0 < krzc,518203,518203,526449
WIMP,1,krzc < 132.6,2688797,475333,518203
