,,,passed_only_cut,passed_incl,totals_incl
,,,unweighted,unweighted,unweighted
dataset,depth,cut,,,
WIMP,0,All,0,0,0
WIMP,1,MS,120131,120131,2731667
WIMP,1,2.0 < mszc,116803,116803,120131
WIMP,1,mszc < 132.6,67775,64447,116803
